^E:\YEAR 3\C++\CLASSESEXAMPLE2\CLASSESEXAMPLE2\STDAFX.CPP
/c /ZI /nologo /W3 /WX- /diagnostics:classic /sdl /Od /Oy- /D WIN32 /D _DEBUG /D _CONSOLE /D _UNICODE /D UNICODE /Gm /EHsc /RTC1 /MDd /GS /fp:precise /Zc:wchar_t /Zc:forScope /Zc:inline /Yc"stdafx.h" /Fp"DEBUG\CLASSESEXAMPLE2.PCH" /Fo"DEBUG\\" /Fd"DEBUG\VC141.PDB" /Gd /TP /analyze- E:\YEAR 3\C++\CLASSESEXAMPLE2\CLASSESEXAMPLE2\STDAFX.CPP
^E:\YEAR 3\C++\CLASSESEXAMPLE2\CLASSESEXAMPLE2\CLASSESEXAMPLE2.CPP
/c /ZI /nologo /W3 /WX- /diagnostics:classic /sdl /Od /Oy- /D WIN32 /D _DEBUG /D _CONSOLE /D _UNICODE /D UNICODE /Gm /EHsc /RTC1 /MDd /GS /fp:precise /Zc:wchar_t /Zc:forScope /Zc:inline /Yu"stdafx.h" /Fp"DEBUG\CLASSESEXAMPLE2.PCH" /Fo"DEBUG\\" /Fd"DEBUG\VC141.PDB" /Gd /TP /analyze- E:\YEAR 3\C++\CLASSESEXAMPLE2\CLASSESEXAMPLE2\CLASSESEXAMPLE2.CPP
^F:\YEAR 3\C++\CLASSESEXAMPLE2\CLASSESEXAMPLE2\STDAFX.CPP
/c /ZI /nologo /W3 /WX- /diagnostics:classic /sdl /Od /Oy- /D WIN32 /D _DEBUG /D _CONSOLE /D _UNICODE /D UNICODE /Gm /EHsc /RTC1 /MDd /GS /fp:precise /Zc:wchar_t /Zc:forScope /Zc:inline /Yc"stdafx.h" /Fp"DEBUG\CLASSESEXAMPLE2.PCH" /Fo"DEBUG\\" /Fd"DEBUG\VC141.PDB" /Gd /TP /analyze- F:\YEAR 3\C++\CLASSESEXAMPLE2\CLASSESEXAMPLE2\STDAFX.CPP
^F:\YEAR 3\C++\CLASSESEXAMPLE2\CLASSESEXAMPLE2\CLASSESEXAMPLE2.CPP
/c /ZI /nologo /W3 /WX- /diagnostics:classic /sdl /Od /Oy- /D WIN32 /D _DEBUG /D _CONSOLE /D _UNICODE /D UNICODE /Gm /EHsc /RTC1 /MDd /GS /fp:precise /Zc:wchar_t /Zc:forScope /Zc:inline /Yu"stdafx.h" /Fp"DEBUG\CLASSESEXAMPLE2.PCH" /Fo"DEBUG\\" /Fd"DEBUG\VC141.PDB" /Gd /TP /analyze- F:\YEAR 3\C++\CLASSESEXAMPLE2\CLASSESEXAMPLE2\CLASSESEXAMPLE2.CPP
^F:\YEAR 3\C++\CLASSESEXAMPLE2\CLASSESEXAMPLE2\CLASSEXAMPLE.CPP
/c /ZI /nologo /W3 /WX- /diagnostics:classic /sdl /Od /Oy- /D WIN32 /D _DEBUG /D _CONSOLE /D _UNICODE /D UNICODE /Gm /EHsc /RTC1 /MDd /GS /fp:precise /Zc:wchar_t /Zc:forScope /Zc:inline /Yu"stdafx.h" /Fp"DEBUG\CLASSESEXAMPLE2.PCH" /Fo"DEBUG\\" /Fd"DEBUG\VC141.PDB" /Gd /TP /analyze- F:\YEAR 3\C++\CLASSESEXAMPLE2\CLASSESEXAMPLE2\CLASSEXAMPLE.CPP
