^F:\YEAR 3\C++\CLASSESEXAMPLE2\CLASSESEXAMPLE2\STDAFX.CPP
F:\YEAR 3\C++\CLASSESEXAMPLE2\CLASSESEXAMPLE2\DEBUG\CLASSESEXAMPLE2.PCH
F:\YEAR 3\C++\CLASSESEXAMPLE2\CLASSESEXAMPLE2\DEBUG\VC141.PDB
F:\YEAR 3\C++\CLASSESEXAMPLE2\CLASSESEXAMPLE2\DEBUG\VC141.IDB
F:\YEAR 3\C++\CLASSESEXAMPLE2\CLASSESEXAMPLE2\DEBUG\STDAFX.OBJ
^F:\YEAR 3\C++\CLASSESEXAMPLE2\CLASSESEXAMPLE2\CLASSESEXAMPLE2.CPP
F:\YEAR 3\C++\CLASSESEXAMPLE2\CLASSESEXAMPLE2\DEBUG\VC141.PDB
F:\YEAR 3\C++\CLASSESEXAMPLE2\CLASSESEXAMPLE2\DEBUG\VC141.IDB
F:\YEAR 3\C++\CLASSESEXAMPLE2\CLASSESEXAMPLE2\DEBUG\CLASSESEXAMPLE2.OBJ
